&quot;	A1	0.015723
&quot;	A2	0.001572
's	A1	0.230769
's	Current	0.115385
's	A2	0.038462
's	Coreferent	0.192308
:	A1	0.250000
Anderson	A1	1.000000
Barrymore	A0	0.500000
Baynes	Current	0.846154
Baynes	A0	0.500000
Baynes	A1	0.192308
Baynes	Coreferent	1.692308
Burnet	Current	1.000000
Burnet	A1	0.125000
Burnet	A2	0.125000
Burnet	Coreferent	1.125000
Burnet	A0	0.125000
Charles	A1	0.200000
Charles	A0	0.200000
Charles	A2	0.200000
Common	A1	1.000000
Could	Coreferent	1.000000
Downing	Current	0.500000
Downing	A2	0.500000
Downing	Coreferent	0.500000
Durando	Current	1.000000
Durando	A2	1.000000
E	Current	1.000000
E	A0	0.500000
E	Coreferent	1.000000
Eccles	A0	0.500000
Eccles	Coreferent	0.500000
Englishman	Current	1.000000
Esher	Coreferent	1.000000
Everything	A1	1.000000
Gable	Current	0.750000
Gable	Coreferent	1.000000
Gable	A4	0.125000
Garcia	Current	1.062500
Garcia	A1	0.125000
Garcia	A2	0.062500
Garcia	Coreferent	1.062500
Garcia	A0	0.187500
God	A1	0.571429
Good-morning	A1	1.000000
Henderson	Current	0.833333
Henderson	A0	0.416667
Henderson	A2	0.083333
Henderson	Coreferent	4.750000
Henry	A1	0.294118
Henry	A0	0.470588
Holmes	Current	0.461538
Holmes	A0	0.602564
Holmes	A1	0.038462
Holmes	A2	0.025641
Holmes	Coreferent	1.692308
I	A1	0.073016
I	Current	0.447619
I	A0	0.730159
I	A3	0.003175
I	A2	0.012698
I	Coreferent	0.355556
Inspector	Current	0.444444
Inspector	A0	0.222222
Inspector	Coreferent	0.111111
Jose	A0	1.000000
Lestrade	A1	0.100000
Lestrade	A0	0.300000
Lodge	Current	0.666667
Lodge	A1	1.000000
Lodge	Coreferent	1.000000
Lopez	Current	1.000000
Lopez	A0	0.500000
Lopez	A1	0.250000
Lopez	Coreferent	1.000000
Lucas	A0	0.500000
Many	A1	1.000000
Marquess	Current	2.000000
Marquess	A1	1.000000
Marquess	Coreferent	1.000000
Marx	Current	0.500000
Marx	A0	0.500000
Marx	Coreferent	1.000000
Mortimer	A0	0.500000
Mr	A1	0.040000
Mr	Current	0.040000
Mr	Coreferent	0.040000
Mr	A0	0.040000
Murillo	Current	1.000000
Murillo	A0	0.142857
Murillo	A1	0.142857
Murillo	Coreferent	0.857143
Museum	A1	0.500000
One	A0	0.200000
One	Coreferent	0.300000
Oxshott	Current	0.333333
Oxshott	Coreferent	0.333333
Pedro	Current	0.777778
Pedro	A1	0.111111
Pedro	Coreferent	1.000000
Pedro	A0	0.111111
Rulli	Current	1.000000
Rulli	Coreferent	1.000000
San	Current	0.222222
Scott	A1	0.500000
Stapleton	A1	0.055556
Stapleton	A0	0.222222
There	A1	0.043478
Tiger	Current	1.000000
To	A1	0.100000
Walters	Current	1.000000
Walters	A1	0.166667
Walters	A2	0.166667
Walters	Coreferent	0.833333
Walters	A0	0.166667
Warner	Current	1.250000
Warner	A1	0.250000
Warner	Coreferent	0.750000
Warner	A0	0.250000
Watson	Current	0.407407
Watson	A1	0.037037
Watson	Coreferent	0.370370
Watson	A0	0.222222
What	A1	0.250000
Wire	A1	1.000000
a	A1	0.017910
a	A0	0.005970
a	A2	0.005970
a	Coreferent	0.011940
aboard	A2	1.000000
about	A1	0.200000
absence	A1	0.500000
across	A1	0.125000
act	A1	0.333333
address	A1	0.500000
after	A1	0.052632
against	A2	0.200000
age	A2	1.000000
agent	Coreferent	1.500000
air	A1	0.166667
all	A1	0.054545
all	Current	0.018182
ally	A1	1.000000
alone	A3	0.200000
along	A2	0.200000
ambuscade	Coreferent	1.000000
amongst	A0	0.142857
and	Coreferent	0.002439
animal	A1	0.400000
another	A1	0.166667
any	A1	0.080000
anything	A1	0.375000
apparently	A1	0.250000
arm	A1	0.166667
arm	Coreferent	0.166667
arrest	A1	0.142857
art	A1	1.000000
as	A1	0.085470
as	A2	0.034188
assistance	A1	1.000000
assistant	A0	1.000000
at	Current	0.010870
at	A1	0.163043
at	A2	0.010870
at	Coreferent	0.010870
attach	Current	1.000000
attach	Coreferent	1.000000
attempt	Current	0.285714
attempt	A1	0.285714
attempt	A2	0.142857
attempt	Coreferent	0.285714
attention	A1	0.333333
avenger	A0	1.000000
away	A3	0.066667
away	A2	0.066667
back	A1	0.041667
back	A2	0.083333
bank	A0	0.250000
baronet	A1	0.272727
baronet	A0	0.545455
be	A1	0.030596
be	A2	0.011272
be	Coreferent	0.008052
bear	A1	0.166667
beast	A0	0.500000
become	A1	0.250000
bed	A4	0.333333
bedroom	A1	0.333333
before	A2	0.120000
behind	A1	0.166667
being	A1	0.250000
believe	A1	0.400000
below	A1	1.000000
between	A2	0.200000
bird	A1	1.000000
bird	Coreferent	0.500000
body	A1	0.200000
body	A0	0.200000
bone	Current	0.250000
botanical	A1	1.000000
both	A0	0.142857
bound	A1	0.333333
boy	A1	0.333333
boy	A0	1.333333
boy	A3	0.333333
brain	A1	0.333333
brandy-flask	A1	1.000000
breath	A1	0.500000
bulk	A1	1.000000
bulldog	A0	1.000000
bush	A1	1.000000
business	A0	0.250000
but	A1	0.009009
by	A1	0.038462
by	A0	0.192308
by	A2	0.038462
cab	Current	0.500000
cab	Coreferent	0.250000
call	A1	0.125000
can	A2	0.060606
can	Coreferent	0.060606
candle	Current	0.200000
candle	Coreferent	0.200000
capture	A1	0.333333
capture	Current	0.333333
carriage	A1	0.400000
carriage	Current	0.600000
carriage	Coreferent	0.800000
case	Current	0.555556
case	A1	0.277778
case	Coreferent	0.444444
certain	A1	0.125000
chain	A0	0.333333
chain	A2	0.333333
chair	Current	0.111111
chance	A1	0.111111
chance	A0	0.111111
chance	Coreferent	0.111111
character	A0	0.500000
chief	A0	1.000000
child	Current	0.400000
child	A0	0.400000
child	A1	0.200000
child	Coreferent	0.600000
cigar	A1	0.333333
circumstance	A1	1.000000
citadel	Current	1.000000
clear	A1	0.100000
click	A1	1.000000
close	A1	0.111111
cock	A1	0.250000
cock	Current	0.250000
cock	A2	0.250000
collaborator	Current	1.000000
collar	A1	0.500000
companion	Current	0.500000
companion	A0	1.375000
companion	A1	0.125000
companion	Coreferent	0.250000
compensation	A0	1.000000
compromise	Current	1.000000
compromise	Coreferent	1.000000
confederate	A1	0.250000
connoisseur	A0	1.000000
consequence	A1	0.333333
constable	A0	1.000000
constable	Coreferent	0.500000
conversation	A1	0.500000
cook	Current	0.750000
cook	Coreferent	1.000000
could	A1	0.026316
couple	A0	0.250000
creak	A1	1.000000
creature	Current	0.181818
creature	A0	0.454545
creature	A1	0.181818
creature	Coreferent	0.181818
credit	A1	0.500000
creditor	Current	1.000000
creditor	A1	1.000000
creditor	A0	1.000000
crime	A1	1.222222
crime	Current	0.555556
crime	A2	0.111111
crime	Coreferent	0.555556
crisp	A2	0.500000
cry	A1	0.142857
customer	Coreferent	1.000000
deal	A1	0.500000
death	Current	0.133333
death	A1	0.133333
death	Coreferent	0.266667
deed	Current	1.000000
deed	A1	1.000000
deed	Coreferent	1.000000
defect	A2	0.500000
desirable	A1	1.000000
despot	A1	1.000000
despot	Current	1.000000
despot	Coreferent	1.000000
detective	A0	0.750000
development	A1	1.000000
devil	Current	0.428571
devil	A0	0.428571
devil	A2	0.142857
devil	Coreferent	0.714286
dictator	Current	1.000000
dictator	A0	1.000000
dictator	Coreferent	1.000000
dinner	A1	0.333333
disappearance	A1	0.500000
discover	A1	0.500000
do	A1	0.042857
do	A2	0.014286
doctor	Coreferent	1.000000
dog	A1	0.333333
door	A1	0.166667
doubt	A1	0.076923
down	A1	0.052632
down	A2	0.052632
down	A4	0.052632
drag	A1	0.250000
draw	A1	0.250000
dream	A1	0.250000
drift	A1	0.333333
drive	A1	0.090909
drive	A0	0.090909
driving-wheel	A0	1.000000
drug	Current	0.333333
duty	A1	0.200000
duty	A2	0.200000
ear	A1	1.000000
easy	A1	1.000000
elsewhere	A2	1.000000
emissary	Current	1.000000
emissary	A0	1.000000
emissary	Coreferent	1.000000
employer	Current	1.000000
employer	A0	1.000000
employer	Coreferent	1.000000
end	Current	0.071429
end	Coreferent	0.142857
enter	A1	0.500000
enterprise	Current	0.200000
enterprise	A1	0.200000
enterprise	Coreferent	0.400000
equipment	Current	1.000000
estate	A1	0.500000
evening	Current	0.100000
evening	Coreferent	0.100000
event	A1	0.750000
event	A0	0.250000
every	A1	0.071429
evidence	A1	0.428571
evidence	A2	0.714286
evolution	Coreferent	1.000000
exactly	A1	0.200000
except	A4	0.500000
excitement	A1	1.000000
excursion	Current	1.000000
excuse	A1	1.000000
exhibit	Coreferent	1.000000
explanation	A0	1.000000
eye	Current	0.037037
eye	A0	0.148148
eye	A2	0.074074
eye	Coreferent	0.037037
face	Current	0.074074
face	A0	0.074074
face	A1	0.037037
face	Coreferent	0.074074
fact	A0	0.250000
fact	Coreferent	0.125000
faint	A1	0.500000
family	Current	0.111111
family	A0	0.111111
family	Coreferent	0.111111
fantastic	A1	1.000000
far	A2	0.200000
fellow	Current	0.333333
fellow	Coreferent	0.333333
fetish	Current	1.000000
fetish	Coreferent	1.000000
figure	A1	0.500000
finger	A1	0.500000
finger	A0	0.500000
flame	A1	0.500000
flash	A0	0.500000
fleet	A1	1.000000
fog	A2	0.083333
fog-bank	A1	0.500000
fog-wreath	A1	2.000000
fog-wreath	A0	1.000000
folk	Current	0.500000
folk	A1	0.500000
folk	Coreferent	0.500000
food	A1	1.000000
footstep	A1	0.500000
for	A1	0.129412
for	A3	0.011765
for	Coreferent	0.011765
foreigner	A1	0.333333
forward	A1	0.500000
forward	A2	0.250000
friend	Current	0.173913
friend	A0	0.652174
friend	A1	0.217391
friend	Coreferent	0.086957
friend	A2	0.086957
from	A1	0.084507
from	A0	0.014085
from	A3	0.042254
from	A2	0.098592
fugitive	Current	1.000000
fugitive	Coreferent	1.000000
gag	A1	0.666667
gap	Current	0.666667
gap	Coreferent	0.666667
gardener	Current	0.500000
gardener	A2	0.500000
gate	Current	0.200000
gate	Coreferent	0.200000
gate	A4	0.200000
general	A0	1.000000
gentleman	Current	0.250000
gentleman	Coreferent	0.250000
get	A1	0.050000
get	A2	0.050000
girl	Current	1.000000
girl	Coreferent	1.000000
give	Coreferent	0.062500
glass	Current	0.500000
glass	A1	0.500000
glass	Coreferent	0.500000
glimmer	A1	1.000000
good	A1	0.040000
governess	Current	0.600000
governess	Coreferent	1.200000
grange	Current	1.000000
grange	Coreferent	1.000000
group	A1	0.500000
group	Coreferent	1.000000
guest	A0	1.000000
hand	A1	0.228571
hand	A0	0.057143
have	A1	0.033223
have	A0	0.003322
have	A2	0.006645
have	Coreferent	0.006645
he	A1	0.163636
he	Current	0.440909
he	A0	0.586364
he	A3	0.004545
he	A2	0.004545
he	Coreferent	0.345455
head	A1	0.428571
head	Coreferent	0.142857
headline	A1	1.000000
heart	A0	0.555556
help	A1	0.250000
her	Current	0.528302
her	A1	0.490566
her	A2	0.018868
her	Coreferent	0.471698
her	A0	0.056604
here	A2	0.066667
him	A1	0.400000
him	Current	0.433333
him	A0	0.055556
him	A3	0.011111
him	A2	0.066667
him	Coreferent	0.333333
himself	Current	0.375000
himself	Coreferent	0.125000
hip-pocket	A1	1.000000
his	Current	0.497297
his	A1	0.372973
his	A2	0.027027
his	Coreferent	0.259459
his	A0	0.054054
horror	A1	0.500000
host	A0	1.000000
hound	A1	0.250000
hound	A2	0.062500
house	A1	1.235294
house	Current	0.441176
house	A2	0.029412
house	A4	0.176471
house	Coreferent	0.441176
household	Current	0.571429
household	A1	0.142857
household	Coreferent	0.857143
how	A1	0.428571
human	A1	0.400000
husband	A1	0.400000
husband	A0	0.600000
husband	Coreferent	0.200000
ice-field	A1	1.000000
identity	A1	0.666667
if	A1	0.058824
if	Coreferent	0.019608
ill	A1	0.500000
impossible	A1	1.000000
imprisonment	Current	1.000000
in	A1	0.048780
in	A3	0.004065
in	A2	0.032520
in	A4	0.004065
indeed	A1	0.166667
information	Current	1.000000
information	A2	1.000000
inquiry	A0	0.500000
inspector	Current	1.166667
inspector	A0	0.833333
inspector	A1	0.166667
inspector	Coreferent	0.666667
instruction	A1	1.000000
instruction	Current	1.000000
instruction	Coreferent	1.000000
insurgent	Coreferent	1.000000
into	A1	0.081081
into	A3	0.054054
into	A2	0.189189
into	A4	0.054054
intuition	A1	1.000000
investigation	A1	0.500000
it	A1	0.244541
it	Current	0.283843
it	A0	0.030568
it	A3	0.004367
it	A2	0.004367
it	Coreferent	0.174672
its	Current	0.157895
its	A1	0.421053
jaw	A1	0.500000
joy	A1	0.500000
justice	A1	0.500000
keep	A1	0.083333
key	A1	0.666667
kill	A2	0.200000
kind	Coreferent	0.333333
kitchen	Current	0.428571
kitchen	A1	0.285714
kitchen	Coreferent	0.571429
knife	A1	1.000000
know	A1	0.050000
lady	Current	0.200000
lady	A0	0.400000
lady	Coreferent	0.200000
lamp	A1	0.250000
laugh	A1	0.333333
law	A0	0.250000
lawyer	A0	1.000000
lesson	A1	1.000000
letter	Current	0.200000
letter	A1	0.800000
letter	Coreferent	0.200000
liberty	A1	0.500000
life	A1	0.066667
light	A1	0.181818
like	A1	0.125000
little	A1	0.125000
little	Current	0.062500
little	Coreferent	0.062500
lodging	A1	1.000000
lodging-house	A1	2.000000
look	A1	0.125000
love	A1	0.250000
luck	Current	0.500000
luck	A2	0.500000
luck	Coreferent	0.500000
lunch	A1	1.000000
lunch	Coreferent	1.000000
man	Current	0.254902
man	A0	1.019608
man	A1	0.156863
man	Coreferent	0.254902
man	A2	0.019608
manservant	Coreferent	1.000000
mansion	A1	1.000000
mark	A1	0.333333
master	Current	0.500000
master	A0	0.250000
master	A2	0.125000
master	Coreferent	0.500000
matter	Current	0.111111
matter	Coreferent	0.222222
may	A1	0.037037
may	A2	0.037037
may	Coreferent	0.074074
me	Current	0.477612
me	A0	0.074627
me	A1	0.208955
me	Coreferent	0.373134
me	A2	0.194030
mean	A1	0.250000
message	A0	0.333333
might	A2	0.045455
mine	A1	0.250000
mine	Current	0.125000
mine	Coreferent	0.125000
miner	A1	1.000000
minister	Current	0.500000
minister	A0	0.500000
mire	A1	0.250000
mischief	A1	1.000000
moment	A1	0.111111
monkey	A1	1.000000
monster	Current	1.000000
more	A1	0.115385
mouth	A2	0.333333
mouthful	A1	1.000000
move	A1	0.111111
movement	A1	0.500000
much	A1	0.300000
mud	A1	1.000000
mulatto	Current	0.750000
mulatto	A1	0.250000
mulatto	Coreferent	0.500000
murder	Current	0.181818
murder	A1	0.090909
murder	A2	0.181818
murder	Coreferent	0.090909
murderer	A1	1.000000
murderer	A0	1.000000
must	A1	0.086957
my	Current	0.547619
my	A0	0.154762
my	A1	0.297619
my	Coreferent	0.333333
my	A2	0.023810
myself	Current	1.000000
myself	Coreferent	1.333333
mystery	A1	0.500000
mystery	A2	0.500000
nail	A1	1.000000
name	A1	0.125000
name	A2	0.375000
near	A1	0.400000
nerve	Current	0.111111
nerve	A1	0.111111
nerve	Coreferent	0.222222
night	Current	0.058824
night	Coreferent	0.058824
no	A1	0.045455
none	A0	0.333333
note	A1	0.750000
note	Current	0.750000
note	Coreferent	0.875000
note-book	Coreferent	1.000000
notebook	A1	1.000000
notebook	Current	1.000000
nothing	A1	0.588235
novel	Coreferent	1.000000
now	Coreferent	0.035714
object	Current	0.200000
object	A1	0.400000
object	Coreferent	0.200000
obstacle	A2	1.000000
odour	A1	1.000000
of	A1	0.177249
of	A0	0.005291
of	A3	0.002646
of	A2	0.015873
off	A3	0.066667
oh	A1	0.333333
on	A1	0.015873
on	A2	0.047619
one	Current	0.038462
one	A1	0.096154
one	A3	0.019231
one	Coreferent	0.057692
one	A0	0.057692
only	A0	0.047619
onto	A2	1.000000
onward	Am	0.500000
opium	Coreferent	1.000000
opportunity	A1	1.000000
or	A2	0.045455
other	A1	0.062500
other	A0	0.062500
our	Current	0.338710
our	A1	0.209677
our	Coreferent	0.225806
our	A0	0.145161
ourselves	Current	0.666667
ourselves	A1	0.333333
out	A1	0.083333
out	A3	0.111111
out	A2	0.083333
out	A4	0.027778
over	A1	0.050000
over	A2	0.050000
own	A1	0.052632
own	Current	0.052632
pail	A1	0.500000
pail	Current	0.500000
pail	A0	0.500000
pale	A1	0.500000
pane	Current	1.000000
pane	Coreferent	0.500000
paper	A1	0.400000
paper	Coreferent	0.200000
part	Coreferent	0.250000
participation	A1	1.000000
paste	A1	1.000000
path	A1	0.076923
people	Current	0.250000
people	A0	0.125000
people	Coreferent	0.250000
persistence	A1	1.000000
person	A0	1.000000
pet	A1	1.000000
phosphorus	A1	0.500000
picture	A1	0.200000
piece	Coreferent	0.333333
piety	A0	1.000000
pike	A1	0.500000
pistol	A1	0.500000
place	A1	0.222222
place	A0	0.111111
plain	A1	1.000000
plan	A1	0.400000
platter	A1	1.000000
pocketbook	A1	1.000000
portrait	A1	0.142857
position	A1	0.428571
power	A1	0.250000
precipice	A1	1.000000
preparation	A1	1.000000
prison	Current	1.000000
prison	A1	1.000000
prison	Coreferent	2.000000
problem	A1	1.000000
property	Coreferent	1.000000
publicly	A2	1.000000
pursuer	Current	0.500000
pursuer	A0	1.000000
pursuit	Coreferent	0.500000
quantity	A1	0.500000
reason	A1	0.200000
reason	A2	0.200000
reasoning	A1	0.500000
reasoning	A0	0.500000
reed	A0	1.000000
refuge	A1	0.500000
rejoin	A1	1.000000
relic	Current	1.000000
relic	Coreferent	1.000000
report	A1	0.500000
rest	A1	0.250000
result	Coreferent	0.500000
retreat	A1	0.500000
retreat	Current	0.500000
return	A1	0.076923
rite	Current	1.000000
rite	A1	1.000000
roaring	A2	1.000000
room	A1	0.050000
room	A3	0.050000
room	Coreferent	0.050000
round	A1	0.083333
rounded	A2	1.000000
rustic	Current	1.000000
rustic	A0	1.000000
rustic	Coreferent	1.000000
sack	A1	1.000000
sacrifice	A1	0.333333
sacrifice	A2	0.333333
sacrifice	Coreferent	0.333333
savage	Current	0.125000
savage	Coreferent	0.125000
say	A1	0.024691
scheme	A1	2.000000
scorn	A1	1.000000
secretary	Current	0.666667
secretary	Coreferent	0.833333
see	A1	0.031746
sell	A1	1.000000
send	A1	0.100000
servant	Current	0.363636
servant	A0	1.181818
servant	A1	0.272727
servant	Coreferent	0.636364
set	Current	0.333333
set	Coreferent	0.333333
shade	A1	1.000000
shadow	A1	0.200000
shake	Coreferent	0.200000
shape	A0	1.000000
share	A1	0.500000
she	Current	0.500000
she	A0	0.625000
she	A1	0.100000
she	Coreferent	0.500000
shock	A0	1.000000
shoe	A1	1.000000
should	A1	0.068966
shoulder	A1	0.200000
shrubbery	Current	0.500000
shrubbery	Coreferent	0.750000
sign	A1	0.166667
sign	A0	0.833333
silent	A3	0.500000
sink	Current	0.166667
sink	Coreferent	0.166667
sir	Current	0.937500
sir	A1	0.062500
sir	Coreferent	0.625000
sister	A0	1.000000
sit	A1	0.200000
situation	A1	0.142857
size	Coreferent	0.500000
smell	A0	1.000000
so	A1	0.195122
so	Current	0.073171
so	Coreferent	0.024390
society	Current	1.000000
society	Coreferent	1.000000
someone	Current	0.333333
someone	A0	0.333333
something	A1	0.363636
something	Current	0.181818
something	Coreferent	0.090909
something	A0	0.090909
soon	A1	0.166667
soul	A1	0.333333
soul	Coreferent	0.333333
speak	A2	0.333333
spirit	A0	0.333333
spot	A1	1.000000
spring	A1	0.090909
staff	A0	0.500000
star	A2	1.000000
state	A2	1.000000
statement	A1	1.000000
statement	Current	0.500000
station	Current	0.166667
station	Coreferent	0.166667
step	Current	0.076923
step	A1	0.076923
step	Coreferent	0.076923
step	A0	0.076923
stride	A0	1.000000
strong	A2	0.166667
student	A0	1.000000
study	A0	1.000000
subject	A1	0.500000
subordinate	Current	1.000000
subordinate	A0	1.000000
subordinate	Coreferent	1.000000
success	A0	1.000000
such	A1	0.083333
superior	A1	1.000000
suspicion	A2	0.250000
swear	A1	0.250000
system	A1	0.666667
system	Current	0.333333
system	Coreferent	0.333333
table	Current	0.333333
table	Coreferent	0.333333
take	A2	0.047619
tangle	Current	0.333333
tangle	A1	0.666667
task	Current	1.000000
telegram	A1	0.500000
telegram	A0	0.500000
tell	A1	0.095238
tell	A0	0.047619
tenant	A1	0.500000
tenant	A0	0.500000
tenant	Coreferent	1.000000
that	Current	0.038462
that	A1	0.367521
that	A2	0.055556
that	Coreferent	0.012821
that	A0	0.008547
the	Current	0.003555
the	A1	0.022512
the	A0	0.005924
the	A2	0.001185
the	Coreferent	0.004739
the	A4	0.001185
their	Current	0.750000
their	A0	0.300000
their	A1	0.050000
their	Coreferent	0.500000
them	Current	0.363636
them	A1	0.242424
them	A2	0.030303
them	Coreferent	0.121212
them	A0	0.030303
themselves	Current	1.000000
themselves	Coreferent	1.000000
theory	A1	0.500000
theory	Coreferent	0.500000
there	Current	0.021739
there	A4	0.021739
these	Current	0.090909
these	Coreferent	0.090909
they	Current	0.704545
they	A1	0.340909
they	A2	0.022727
they	Coreferent	0.636364
they	A0	0.545455
thing	Current	0.076923
thing	Coreferent	0.153846
think	A1	0.038462
think	A0	0.038462
this	Current	0.068493
this	A0	0.013699
this	A1	0.027397
this	Coreferent	0.054795
those	A0	0.111111
those	Coreferent	0.111111
three	A0	0.166667
through	A1	0.052632
thumb	A1	1.000000
time	A1	0.111111
to	A1	0.188119
to	A0	0.003300
to	A3	0.003300
to	A2	0.118812
to	A4	0.046205
to	Coreferent	0.009901
tonight	A1	0.250000
tooth	A0	0.333333
towel	A1	1.000000
town	A1	0.250000
trace	A1	0.250000
tradespeople	A0	1.000000
tragedy	Current	0.500000
train	Current	0.400000
train	A1	0.200000
train	Coreferent	0.400000
traitress	A1	1.000000
traitress	A2	1.000000
traprock	Current	0.250000
traprock	A1	0.500000
treasure	A1	0.500000
treasure	Current	0.500000
treasure	Coreferent	0.500000
tree	A1	0.500000
trigger	A1	1.000000
trouble	A2	0.333333
trousers	A1	1.000000
truth	A1	0.333333
try	Current	0.153846
try	Coreferent	0.230769
twice	Coreferent	0.500000
two	Current	0.050000
two	A0	0.050000
tyrant	Current	0.500000
unique	A1	1.000000
up	A1	0.064516
up	A4	0.032258
upon	A1	0.103448
upon	A3	0.017241
upon	A2	0.086207
upon	A4	0.017241
us	A1	0.220000
us	Current	0.160000
us	A2	0.120000
us	Coreferent	0.200000
us	A0	0.100000
valuable	Coreferent	1.000000
vengeance	Coreferent	1.000000
very	Current	0.028571
victim	A1	0.250000
victim	A2	0.750000
view	Current	0.250000
view	A1	0.250000
view	Coreferent	0.250000
village	Current	0.250000
village	A1	0.250000
village	A0	0.250000
villein	Current	0.333333
villein	A0	0.333333
visit	Current	0.200000
visit	A1	0.200000
visit	Coreferent	0.200000
voice	A1	1.000000
voodoo-worshipper	A0	2.000000
voodoo-worshipper	Coreferent	1.000000
wagonette	A1	1.500000
wait	A0	0.071429
walk	A1	0.062500
walk	A0	0.062500
wall	A1	0.125000
wand	A1	1.000000
wand	A0	0.500000
want	A1	0.142857
warning	Current	0.500000
warning	Coreferent	0.500000
watch	A1	0.142857
way	A1	0.166667
way	Current	0.111111
way	A2	0.055556
way	Coreferent	0.111111
we	Current	0.248447
we	A0	0.571429
we	A1	0.136646
we	Coreferent	0.285714
we	A2	0.012422
what	Current	0.040000
what	A1	0.840000
what	A0	0.080000
whatever	A1	0.600000
wheel	A1	0.500000
when	A0	0.024390
where	A1	0.238095
where	A3	0.047619
where	A2	0.285714
wherever	A4	1.000000
whether	A1	0.250000
which	A1	0.250000
which	A0	0.119565
which	A2	0.010870
whim	Coreferent	1.000000
white	A3	0.058824
who	A1	0.047619
who	A0	0.238095
whom	A1	0.571429
whose	Current	0.166667
whose	A0	0.333333
whose	A1	0.166667
wife	A1	0.166667
wife	A0	1.000000
will	A1	0.037037
window	Current	0.176471
window	Coreferent	0.235294
wink	A1	1.000000
wire	A1	1.000000
wish	A1	0.200000
with	A1	0.027523
with	A0	0.009174
with	A2	0.009174
with	Coreferent	0.009174
woman	Current	0.400000
woman	A1	0.100000
woman	Coreferent	0.200000
woman	A0	0.100000
word	A1	0.166667
work	Current	0.142857
work	A1	0.714286
work	A2	0.142857
would	A1	0.097561
would	A2	0.024390
wretch	A1	1.000000
yonder	A2	0.500000
you	Current	0.327381
you	A1	0.136905
you	A2	0.053571
you	Coreferent	0.250000
you	A0	0.482143
your	Current	0.405405
your	A1	0.135135
your	Coreferent	0.270270
your	A0	0.189189
yours	A1	0.666667
yours	Current	0.333333
yours	Coreferent	0.666667
yourself	Current	1.000000
